f

Ramen

United States

Albert Mort
Mort Albert

Ricardo Krause

Sierra Oneal

Blade Austin

Lola-Rose Dalton

Eric Farrow

Kabir Graham
Rosina Thompson
Shiv Turner

Rishi Burrows

Daisy-Mae Price

Darci Park

ABCDEF

Lucie Sheridan

Romeo Steadman

Nelly O'Brien

Glen Ireland
